module sharkops-io

go 1.15

require gitlab.com/sharkops/sharkops-hugo-theme v0.0.0-20201122203837-f43bc43029c5 // indirect

// replace gitlab.com/sharkops/sharkops-hugo-theme => /home/landsverka/code/sharkops-hugo-theme
